Introduction to tidyquant
…
A wide range of stock index / exchange lists can be retrieved using get = "stock.index". To get a full list of the options, use tq_get_stock_index_options().

tq_get_stock_index_options()

##  [1] "DOWJONES"    "DJI"         "DJT"         "DJU"         "SP100"      
##  [6] "SP400"       "SP500"       "SP600"       "RUSSELL1000" "RUSSELL2000"
## [11] "RUSSELL3000" "AMEX"        "AMEXGOLD"    "AMEXOIL"     "NASDAQ"     
## [16] "NASDAQ100"   "NYSE"        "SOX"

Set x as one of the options in the list of options above, and get = "stock.index" to get the desired stock index / exchange.

tq_get("sp500", get = "stock.index")

## # A tibble: 501 × 2
##    symbol                   company
##     <chr>                     <chr>
## 1     MMM                        3M
## 2     ABT       ABBOTT LABORATORIES
## 3    ABBV                ABBVIE INC
## 4     ACN                 ACCENTURE
## 5    ATVI       ACTIVISION BLIZZARD
## 6     AYI             ACUITY BRANDS
## 7    ADBE             ADOBE SYSTEMS
## 8     AAP        ADVANCE AUTO PARTS
## 9     AET                     AETNA
## 10    AMG AFFILIATED MANAGERS GROUP
## # ... with 491 more rows

The data source is www.marketvolume.com.

Stock Prices, Dividends and Splits:

The stock prices can be retrieved succinctly using get = "stock.prices".

aapl_prices  <- tq_get("AAPL", get = "stock.prices", from = " 1990-01-01")
aapl_prices 

## # A tibble: 6,805 × 7
##          date   open   high   low  close   volume adjusted
##        <date>  <dbl>  <dbl> <dbl>  <dbl>    <dbl>    <dbl>
## 1  1990-01-02 35.250 37.500 35.00 37.250 45799600 1.132075
## 2  1990-01-03 38.000 38.000 37.50 37.500 51998800 1.139673
## 3  1990-01-04 38.250 38.750 37.25 37.625 55378400 1.143471
## 4  1990-01-05 37.750 38.250 37.00 37.750 30828000 1.147270
## 5  1990-01-08 37.500 38.000 37.00 38.000 25393200 1.154868
## 6  1990-01-09 38.000 38.000 37.00 37.625 21534800 1.143471
## 7  1990-01-10 37.625 37.625 35.75 36.000 49929600 1.094086
## 8  1990-01-11 36.250 36.250 34.50 34.500 52763200 1.048499
## 9  1990-01-12 34.250 34.750 33.75 34.500 42974400 1.048499
## 10 1990-01-15 34.500 35.750 34.25 34.250 40434800 1.040901
## # ... with 6,795 more rows

Dividends are obtained using get = "dividends".

aapl_divs <- tq_get("AAPL", get = "dividends", from = "1990-01-01")
aapl_divs

## # A tibble: 42 × 2
##          date dividends
##        <date>     <dbl>
## 1  1990-02-16   0.00393
## 2  1990-05-21   0.00393
## 3  1990-08-20   0.00393
## 4  1990-11-16   0.00429
## 5  1991-02-15   0.00429
## 6  1991-05-20   0.00429
## 7  1991-08-19   0.00429
## 8  1991-11-18   0.00429
## 9  1992-02-14   0.00429
## 10 1992-06-01   0.00429
## # ... with 32 more rows
…
## # A tibble: 3 × 3
##    type             annual            quarter
## * <chr>             <list>             <list>
## 1    BS <tibble [168 × 4]> <tibble [210 × 4]>
## 2    CF  <tibble [76 × 4]>  <tibble [76 × 4]>
## 3    IS <tibble [196 × 4]> <tibble [245 × 4]>

The statement information can be extracted by selecting (dplyr::select()) and filtering (dplyr::filter()) to the desired statement and unnesting (tidyr::unnest()) the results.

fb_financials %>%
    filter(type == "IS") %>%
    select(annual) %>%
    unnest()

## # A tibble: 196 × 4
##    group             category       date value
##    <int>                <chr>     <date> <dbl>
## 1      1              Revenue 2015-12-31 17928
## 2      1              Revenue 2014-12-31 12466
## 3      1              Revenue 2013-12-31  7872
## 4      1              Revenue 2012-12-31  5089
## 5      2 Other Revenue, Total 2015-12-31    NA
## 6      2 Other Revenue, Total 2014-12-31    NA
## 7      2 Other Revenue, Total 2013-12-31    NA
## 8      2 Other Revenue, Total 2012-12-31    NA
## 9      3        Total Revenue 2015-12-31 17928
## 10     3        Total Revenue 2014-12-31 12466
## # ... with 186 more rows

A slightly more powerful example is looking at all quarterly statements together. This is easy to do with unnest and spread from the tidyr package.

fb_financials %>%
    unnest(quarter) %>% 
    spread(key = date, value = value)

## # A tibble: 110 × 8
##     type group                         category `2015-09-30` `2015-12-31`
## *  <chr> <int>                            <chr>        <dbl>        <dbl>
## 1     BS     1               Cash & Equivalents         1621         2409
## 2     BS     2           Short Term Investments        11526        14322
## 3     BS     3  Cash and Short Term Investments        15834        18434
## 4     BS     4 Accounts Receivable - Trade, Net         2010         2559
## 5     BS     5              Receivables - Other           NA           NA
## 6     BS     6           Total Receivables, Net         2010         2559
## 7     BS     7                  Total Inventory           NA           NA
## 8     BS     8                 Prepaid Expenses         1295          659
## 9     BS     9      Other Current Assets, Total           NA           NA
## 10    BS    10             Total Current Assets        19139        21652
## # ... with 100 more rows, and 3 more variables: `2016-03-31` <dbl>,
## #   `2016-06-30` <dbl>, `2016-09-30` <dbl>

The data source is google finance.

Economic Data:

A wealth of economic data can be extracted from the Federal Reserve Economic Data (FRED) database. The WTI Crude Oil Prices are shown below.

wti_price_usd <- tq_get("DCOILWTICO", get = "economic.data")
wti_price_usd 

## # A tibble: 2,867 × 2
##          date price
##        <date> <dbl>
## 1  2006-01-02    NA
## 2  2006-01-03 63.11
## 3  2006-01-04 63.41
## 4  2006-01-05 62.81
## 5  2006-01-06 64.21
## 6  2006-01-09 63.56
## 7  2006-01-10 63.41
## 8  2006-01-11 63.91
## 9  2006-01-12 63.96
## 10 2006-01-13 63.86
## # ... with 2,857 more rows

The FRED contains literally over 10K data sets that are free to use. See the FRED categories to narrow down the data base and to get data codes.

Exchange Rates:

Exchange rates are entered as currency pairs using “/” notation (e.g "EUR/USD"), and by setting get = "exchange.rates".

eur_usd <- tq_get("EUR/USD", get = "exchange.rates", from = "2000-01-01")
eur_usd 

## # A tibble: 1,827 × 2
##          date exchange.rate
##        <date>         <dbl>
## 1  2011-12-31       1.29618
## 2  2012-01-01       1.29590
## 3  2012-01-02       1.29375
## 4  2012-01-03       1.30038
## 5  2012-01-04       1.30036
## 6  2012-01-05       1.28717
## 7  2012-01-06       1.27698
## 8  2012-01-07       1.27195
## 9  2012-01-08       1.27151
## 10 2012-01-09       1.27272
## # ... with 1,817 more rows

The data source is Oanda, and list of currencies to compare can be found on Oanda’s currency converter. It may make more sense to get this data from the FRED (See Economic Data) since the max period for Oanda is 5-years.

Metal Prices:

Metal prices are very similar to stock prices. Set get = "metal.prices" along with the appropriate commodity symbol (e.g. XAU (gold) , XAG (silver), XPD (palladium), or XPT (platinum)).

plat_price_eur <- tq_get("plat", get = "metal.prices", 
                         from = "2000-01-01", base.currency = "EUR")
plat_price_eur 

## # A tibble: 1,827 × 2
##          date   price
##        <date>   <dbl>
## 1  2011-12-31 1080.87
## 2  2012-01-01 1081.11
## 3  2012-01-02 1085.99
## 4  2012-01-03 1080.45
## 5  2012-01-04 1080.47
## 6  2012-01-05 1091.55
## 7  2012-01-06 1100.26
## 8  2012-01-07 1104.61
## 9  2012-01-08 1097.12
## 10 2012-01-09 1096.08
## # ... with 1,817 more rows
The data source is Oanda. It may make more sense to get this data from the FRED (See Economic Data) since the max period for Oanda is 5-years.

Transform and Mutate Quantitative Data

Transform and mutate functions enable the xts, quantmod and TTR functions to shine (see Leverage the Quantitative Power of xts, quantmod and TTR):

Transform Quantitative Data, tq_transform():

Transforms the results of tq_get(). The result is typically a different shape than the input (hence “transformed”), although this is not a requirement. An example is periodicity aggregation from daily to monthly.

fb_prices <- tq_get("FB") 
fb_prices %>%
    tq_transform(x_fun = OHLCV, transform_fun = to.monthly)

## # A tibble: 56 × 6
##        date  open  high   low close    volume
##       <chr> <dbl> <dbl> <dbl> <dbl>     <dbl>
## 1  May 2012 28.55 29.67 26.83 29.60 111639200
## 2  Jun 2012 31.92 31.99 30.76 31.10  19526900
## 3  Jul 2012 23.37 23.37 21.61 21.71  56179400
## 4  Aug 2012 18.68 18.70 18.03 18.06  58764200
## 5  Sep 2012 20.57 21.95 20.50 21.66  65486000
## 6  Oct 2012 20.82 21.50 20.73 21.11  99378200
## 7  Nov 2012 27.26 28.00 26.76 28.00 127049600
## 8  Dec 2012 26.20 26.99 26.11 26.62  60374500
## 9  Jan 2013 29.15 31.47 28.74 30.98 190744900
## 10 Feb 2013 26.84 27.30 26.34 27.25  83027800
## # ... with 46 more rows

Let’s go through what happened. x_fun is one of the various quantmod Open, High, Low, Close (OHLC) functions (see ?quantmod::OHLC). The function returns a column or set of columns from data that are passed to the transform_fun. In example above, OHLCV selects the full list of prices and volumes from data, and sends this to the transform function, to.monthly, which transforms the periodicity from daily to monthly. Additional arguments can be passed to the transform_fun by way of ....

Mutate Quantitative Data, tq_mutate():

Adds a column or set of columns to the tibble with the calculated attributes (hence the original tibble is returned, mutated with the additional columns). An example is getting the MACD from Cl (close price), which mutates the original input by adding MACD and Signal columns.

fb_prices %>%
    tq_mutate(x_fun = Cl, mutate_fun = MACD)

## # A tibble: 1,163 × 9
##          date  open  high   low close    volume adjusted  macd signal
##        <date> <dbl> <dbl> <dbl> <dbl>     <dbl>    <dbl> <dbl>  <dbl>
## 1  2012-05-18 42.05 45.00 38.00 38.23 573576400    38.23    NA     NA
## 2  2012-05-21 36.53 36.66 33.00 34.03 168192700    34.03    NA     NA
## 3  2012-05-22 32.61 33.59 30.94 31.00 101786600    31.00    NA     NA
## 4  2012-05-23 31.37 32.50 31.36 32.00  73600000    32.00    NA     NA
## 5  2012-05-24 32.95 33.21 31.77 33.03  50237200    33.03    NA     NA
## 6  2012-05-25 32.90 32.95 31.11 31.91  37149800    31.91    NA     NA
## 7  2012-05-29 31.48 31.69 28.65 28.84  78063400    28.84    NA     NA
## 8  2012-05-30 28.70 29.55 27.86 28.19  57267900    28.19    NA     NA
## 9  2012-05-31 28.55 29.67 26.83 29.60 111639200    29.60    NA     NA
## 10 2012-06-01 28.89 29.15 27.39 27.72  41855500    27.72    NA     NA
## # ... with 1,153 more rows
…
Enables working with:

Transformation functions that require two primary inputs (e.g. EVWMA, VWAP, etc)

Data that is not in OHLC format.

Transformation with two primary inputs:

EVWMA (exponential volume-weighted moving average) requires two inputs, price and volume, that are not in OHLC code format. To work with these columns, we can switch to the xy variants, tq_transform_xy() and tq_mutate_xy(). The only difference is instead of an x_fun argument, you use .x and .y arguments to pass the columns needed based on the transform_fun or mutate_fun documentation.

fb_prices %>%
    tq_mutate_xy(.x = close, .y = volume, mutate_fun = EVWMA)

## # A tibble: 1,163 × 8
##          date  open  high   low close    volume adjusted    V1
##        <date> <dbl> <dbl> <dbl> <dbl>     <dbl>    <dbl> <dbl>
## 1  2012-05-18 42.05 45.00 38.00 38.23 573576400    38.23    NA
## 2  2012-05-21 36.53 36.66 33.00 34.03 168192700    34.03    NA
## 3  2012-05-22 32.61 33.59 30.94 31.00 101786600    31.00    NA
## 4  2012-05-23 31.37 32.50 31.36 32.00  73600000    32.00    NA
## 5  2012-05-24 32.95 33.21 31.77 33.03  50237200    33.03    NA
## 6  2012-05-25 32.90 32.95 31.11 31.91  37149800    31.91    NA
## 7  2012-05-29 31.48 31.69 28.65 28.84  78063400    28.84    NA
## 8  2012-05-30 28.70 29.55 27.86 28.19  57267900    28.19    NA
## 9  2012-05-31 28.55 29.67 26.83 29.60 111639200    29.60    NA
## 10 2012-06-01 28.89 29.15 27.39 27.72  41855500    27.72 27.72
## # ... with 1,153 more rows

Working with non-OHLC data:

Returns from FRED, Oanda, and other sources do not have open, high, low, close, and volume (OHLCV) format. The following example shows how to transform WTI Crude daily prices to monthly prices. Since we only have a single column to pass, set the .x = price and leave the .y = NULL. This sends the price column to the to.period transformation fuction.

wti_prices <- tq_get("DCOILWTICO", get = "economic.data") 
wti_prices %>%    
    tq_transform_xy(.x = price, transform_fun = to.period,
                    period = "months")

## # A tibble: 132 × 2
##          date price
##        <dttm> <dbl>
## 1  2006-01-31 67.86
## 2  2006-02-28 61.37
## 3  2006-03-31 66.25
## 4  2006-04-28 71.80
## 5  2006-05-31 71.42
## 6  2006-06-30 73.94
## 7  2006-07-31 74.56
## 8  2006-08-31 70.38
## 9  2006-09-29 62.90
## 10 2006-10-31 58.72
## # ... with 122 more rows
…
Working in the tidyverse

You probably already know and love tidyverse packages like dplyr, tidyr, purrr, readr, and tibble along with lubridate for working with date and datetime. tidyquant works solely in tibbles, so all of the tidyverse functionality is intact.

A simple example inspired by Kan Nishida’s blog shows the dplyr and lubridate capability: Say we want the growth in the stock over the past year. We can do this with dplyr operations.

Getting the last year is simple with dplyr and lubridate. We first select the date and adjusted price (adjusted for stock splits). We then filter using lubridate date functions.

aapl_prices %>%
    select(date, adjusted) %>%
    filter(date >= today() - years(1))

## # A tibble: 253 × 2
##          date  adjusted
##        <date>     <dbl>
## 1  2015-12-31 102.96903
## 2  2016-01-04 103.05706
## 3  2016-01-05 100.47452
## 4  2016-01-06  98.50827
## 5  2016-01-07  94.35077
## 6  2016-01-08  94.84967
## 7  2016-01-11  96.38550
## 8  2016-01-12  97.78438
## 9  2016-01-13  95.27031
## 10 2016-01-14  97.35395
## # ... with 243 more rows

We can also get a baseline price using the first function. Adding to our workflow, this looks like:

aapl_prices %>%
    select(date, adjusted) %>%
    filter(date >= today() - years(1)) %>%
    mutate(baseline = first(adjusted))

## # A tibble: 253 × 3
##          date  adjusted baseline
##        <date>     <dbl>    <dbl>
## 1  2015-12-31 102.96903  102.969
## 2  2016-01-04 103.05706  102.969
## 3  2016-01-05 100.47452  102.969
## 4  2016-01-06  98.50827  102.969
## 5  2016-01-07  94.35077  102.969
## 6  2016-01-08  94.84967  102.969
## 7  2016-01-11  96.38550  102.969
## 8  2016-01-12  97.78438  102.969
## 9  2016-01-13  95.27031  102.969
## 10 2016-01-14  97.35395  102.969
## # ... with 243 more rows

Growth and growth percent versus baseline columns can be added now. We tack on a final select statement to remove unnecessary columns. The final workflow looks like this:

aapl_prices %>%
    select(date, adjusted) %>%
    filter(date >= today() - years(1)) %>%
    mutate(baseline = first(adjusted),
           growth = adjusted - baseline,
           growth_pct = growth / baseline * 100) %>%
    select(-(baseline:growth))

## # A tibble: 253 × 3
##          date  adjusted growth_pct
##        <date>     <dbl>      <dbl>
## 1  2015-12-31 102.96903  0.0000000
## 2  2016-01-04 103.05706  0.0854995
## 3  2016-01-05 100.47452 -2.4225751
## 4  2016-01-06  98.50827 -4.3321348
## 5  2016-01-07  94.35077 -8.3697559
## 6  2016-01-08  94.84967 -7.8852393
## 7  2016-01-11  96.38550 -6.3936946
## 8  2016-01-12  97.78438 -5.0351540
## 9  2016-01-13  95.27031 -7.4767271
## 10 2016-01-14  97.35395 -5.4531690
## # ... with 243 more rows
…
Quantitative Power In Action

We’ll go through some examples, but first let’s get some data. The default for tq_get() is get = "stock.prices", so all we need is to give x a stock symbol.

AAPL <- tq_get("AAPL")

Example 1: Getting the max close price for each quarter.

The xts::apply.quarterly() function that is part of the period apply group can be used to apply functions by quarterly time segments. Because we are seeking a return structure that is on a different time scale than the input (quarterly versus daily), we need to use a transform function. We select tq_transform and pass the close price using OHLC format via x_fun = Cl, and we send this subset of the data to the apply.quarterly function via the transform_fun argument. Looking at the documentation for apply.quarterly, we see that we can pass a function to the argument, FUN. We want the maximum values, so we set FUN = max. The result is the quarters returned as a date and the maximum closing price during the quarter returned as a double.

AAPL %>%
    tq_transform(x_fun = Cl, transform_fun = apply.quarterly, FUN = max)

## # A tibble: 44 × 2
##          date  close
##        <dttm>  <dbl>
## 1  2006-03-31  85.59
## 2  2006-06-30  71.89
## 3  2006-09-29  77.61
## 4  2006-12-29  91.81
## 5  2007-03-30  97.10
## 6  2007-06-29 125.09
## 7  2007-09-28 154.50
## 8  2007-12-31 199.83
## 9  2008-03-31 194.93
## 10 2008-06-30 189.96
## # ... with 34 more rows

Note that as an alternative you could use the xy form, replacing x_fun = Cl with .x = close.

Example 2: Getting daily log returns

The quantmod::periodReturn() function generates returns by periodicity. We have a few options here. Normally I go with a transform function, tq_transform, because the periodReturn function accepts different periodicity options, and anything other than daily will blow up a mutation. But, in our situation the period returns periodicity is the same as the stock prices periodicity (both daily), so we can use either. We want to use the adjusted closing prices column (adjusted for stock splits, which can make it appear that a stock is performing poorly if a split is included), so we set x_fun = Ad. We researched the periodReturn function, and we found that it accepts type = "log" and period = "daily", which returns the daily log returns.

AAPL %>%
    tq_transform(x_fun = Ad, transform_fun = periodReturn, 
                 type = "log", period = "daily")

## # A tibble: 2,769 × 2
##          date daily.returns
##        <dttm>         <dbl>
## 1  2006-01-03   0.000000000
## 2  2006-01-04   0.002938752
## 3  2006-01-05  -0.007900889
## 4  2006-01-06   0.025485766
## 5  2006-01-09  -0.003281888
## 6  2006-01-10   0.061328315
## 7  2006-01-11   0.036906288
## 8  2006-01-12   0.004637594
## 9  2006-01-13   0.015305252
## 10 2006-01-17  -0.010334731
## # ... with 2,759 more rows
…
