Scaling Your Analysis with tidyquant
…
Load the tidyquant package to get started.

# Loads tidyquant, tidyverse, lubridate, xts, quantmod, TTR 
library(tidyquant)  

Getting Financial Data for Multiple Stocks

A very basic example is retrieving the stock prices for multiple stocks. There are three primary ways to do this:

Method 1: Map a character vector with multiple stock symbols

c("AAPL", "GOOG", "FB") %>%
    tq_get(get = "stock.prices", from = "2016-01-01", to = "2017-01-01")

## # A tibble: 756 × 8
##    symbol       date   open   high    low  close   volume  adjusted
##     <chr>     <date>  <dbl>  <dbl>  <dbl>  <dbl>    <dbl>     <dbl>
## 1    AAPL 2016-01-04 102.61 105.37 102.00 105.35 67649400 102.61218
## 2    AAPL 2016-01-05 105.75 105.85 102.41 102.71 55791000 100.04079
## 3    AAPL 2016-01-06 100.56 102.37  99.87 100.70 68457400  98.08303
## 4    AAPL 2016-01-07  98.68 100.13  96.43  96.45 81094400  93.94347
## 5    AAPL 2016-01-08  98.55  99.11  96.76  96.96 70798000  94.44022
## 6    AAPL 2016-01-11  98.97  99.06  97.34  98.53 49739400  95.96942
## 7    AAPL 2016-01-12 100.55 100.69  98.84  99.96 49154200  97.36226
## 8    AAPL 2016-01-13 100.32 101.19  97.30  97.39 62439600  94.85905
## 9    AAPL 2016-01-14  97.96 100.48  95.74  99.52 63170100  96.93369
## 10   AAPL 2016-01-15  96.20  97.71  95.36  97.13 79010000  94.60580
## # ... with 746 more rows
…
## # A tibble: 3 × 2
##   stocks   industry
##    <chr>      <chr>
## 1   AAPL Technology
## 2    JPM  Financial
## 3    CVX     Energy

Second, send the stock list to tq_get. Notice how the symbol and industry columns are automatically expanded the length of the stock prices.

stock_list %>%
    tq_get(get = "stock.prices", from = "2016-01-01", to = "2017-01-01")

## # A tibble: 756 × 9
##    stocks   industry       date   open   high    low  close   volume
##     <chr>      <chr>     <date>  <dbl>  <dbl>  <dbl>  <dbl>    <dbl>
## 1    AAPL Technology 2016-01-04 102.61 105.37 102.00 105.35 67649400
## 2    AAPL Technology 2016-01-05 105.75 105.85 102.41 102.71 55791000
## 3    AAPL Technology 2016-01-06 100.56 102.37  99.87 100.70 68457400
## 4    AAPL Technology 2016-01-07  98.68 100.13  96.43  96.45 81094400
## 5    AAPL Technology 2016-01-08  98.55  99.11  96.76  96.96 70798000
## 6    AAPL Technology 2016-01-11  98.97  99.06  97.34  98.53 49739400
## 7    AAPL Technology 2016-01-12 100.55 100.69  98.84  99.96 49154200
## 8    AAPL Technology 2016-01-13 100.32 101.19  97.30  97.39 62439600
## 9    AAPL Technology 2016-01-14  97.96 100.48  95.74  99.52 63170100
## 10   AAPL Technology 2016-01-15  96.20  97.71  95.36  97.13 79010000
## # ... with 746 more rows, and 1 more variables: adjusted <dbl>

Method 2B: Use index or exchange

Get an index…

tq_index("DOWJONES")

## # A tibble: 65 × 2
##    symbol                      company
##     <chr>                        <chr>
## 1     MMM                           3M
## 2     ALK             ALASKA AIR GROUP
## 3     AAL AMERICAN AIRLINES GROUP INC.
## 4     AEP      AMERICAN ELECTRIC POWER
## 5     AXP             AMERICAN EXPRESS
## 6     AWK         AMERICAN WATER WORKS
## 7    AAPL                        APPLE
## 8     CAR            AVIS BUDGET GROUP
## 9     CAT                  CATERPILLAR
## 10    CNP           CENTERPOINT ENERGY
## # ... with 55 more rows

…or, get an exchange.

tq_exchange("NYSE")

## # A tibble: 3,161 × 7
##    symbol                company last.sale.price market.cap ipo.year
##     <chr>                  <chr>           <dbl>      <chr>    <dbl>
## 1     DDD 3D Systems Corporation           16.92      $1.9B       NA
## 2     MMM             3M Company          183.41   $109.35B       NA
## 3    WBAI        500.com Limited           13.14   $545.28M     2013
## 4    WUBA            58.com Inc.           33.70     $4.88B     2013
## 5     AHC  A.H. Belo Corporation            6.40   $138.73M       NA
## 6    ATEN     A10 Networks, Inc.            9.76   $655.93M     2014
## 7     AAC     AAC Holdings, Inc.            8.06   $191.08M     2014
## 8     AIR              AAR Corp.           33.95     $1.17B       NA
## 9     AAN     Aaron&#39;s,  Inc.           29.52     $2.14B       NA
## 10    ABB                ABB Ltd           23.01    $49.15B       NA
## # ... with 3,151 more rows, and 2 more variables: sector <chr>,
## #   industry <chr>

Send the index or exchange to tq_get. Important Note: This can take several minutes depending on the size of the index or exchange, which is why only the first three stocks are evaluated in the vignette.

tq_index("DOWJONES") %>%
    slice(1:3) %>%
    tq_get(get = "stock.prices")

## # A tibble: 7,650 × 9
##    symbol company       date  open  high   low close  volume adjusted
##     <chr>   <chr>     <date> <dbl> <dbl> <dbl> <dbl>   <dbl>    <dbl>
## 1     MMM      3M 2007-01-03 77.53 78.85 77.38 78.26 3781500 59.92042
## 2     MMM      3M 2007-01-04 78.40 78.41 77.45 77.95 2968400 59.68306
## 3     MMM      3M 2007-01-05 77.89 77.90 77.01 77.42 2765200 59.27726
## 4     MMM      3M 2007-01-08 77.42 78.04 76.97 77.59 2434500 59.40742
## 5     MMM      3M 2007-01-09 78.00 78.23 77.44 77.68 1896800 59.47633
## 6     MMM      3M 2007-01-10 77.31 77.96 77.04 77.85 1787500 59.60649
## 7     MMM      3M 2007-01-11 78.05 79.03 77.88 78.65 2372500 60.21902
## 8     MMM      3M 2007-01-12 78.41 79.50 78.22 79.36 2582200 60.76264
## 9     MMM      3M 2007-01-16 79.48 79.62 78.92 79.56 2526600 60.91577
## 10    MMM      3M 2007-01-17 79.33 79.51 78.75 78.91 2711300 60.41810
## # ... with 7,640 more rows
…
Pros: Long running scripts are not interrupted because of one error

Cons: Errors can be inadvertently handled or flow downstream if the users does not read the warnings

Bad Apples Fail Gracefully, tq_get

Let’s see an example when using tq_get() to get the stock prices for a long list of stocks with one BAD APPLE. The argument complete_cases comes in handy. The default is TRUE, which removes “bad apples” so future analysis have complete cases to compute on. Note that a gentle warning stating that an error occurred and was dealt with by removing the rows from the results.

c("AAPL", "GOOG", "BAD APPLE") %>%
    tq_get(get = "stock.prices", complete_cases = TRUE)

## Warning in value[[3L]](cond): Error at BAD APPLE during call to get =
## 'stock.prices'. Removing BAD APPLE.

## # A tibble: 5,100 × 8
##    symbol       date  open  high   low close    volume adjusted
##     <chr>     <date> <dbl> <dbl> <dbl> <dbl>     <dbl>    <dbl>
## 1    AAPL 2007-01-03 86.29 86.58 81.90 83.80 309579900 10.85709
## 2    AAPL 2007-01-04 84.05 85.95 83.82 85.66 211815100 11.09807
## 3    AAPL 2007-01-05 85.77 86.20 84.40 85.05 208685400 11.01904
## 4    AAPL 2007-01-08 85.96 86.53 85.28 85.47 199276700 11.07345
## 5    AAPL 2007-01-09 86.45 92.98 85.15 92.57 837324600 11.99333
## 6    AAPL 2007-01-10 94.75 97.80 93.45 97.00 738220000 12.56728
## 7    AAPL 2007-01-11 95.94 96.78 95.10 95.80 360063200 12.41180
## 8    AAPL 2007-01-12 94.59 95.06 93.23 94.62 328172600 12.25892
## 9    AAPL 2007-01-16 95.68 97.25 95.45 97.10 311019100 12.58023
## 10   AAPL 2007-01-17 97.56 97.60 94.82 94.95 411565000 12.30168
## # ... with 5,090 more rows
…
